A Computational Literature Review of Machine Intelligence in Education using Probalistic Topic Modeling
…
### 4b. Gamma

Silge & Robinson (2017) state, besides estimating each topic as
a mixture of words, LDA also models each document as a mixture of
topics. We can examine the per-document-per-topic probabilities, called
(gamma), with the matrix = gamma argument to tidy().

Show relationship between topic and journal document field.

tidy_data3

## # A tibble: 137 x 7
##    title                abstract published_year journal document subfield number
##    <chr>                <chr>             <dbl> <chr>   <chr>    <chr>     <int>
##  1 "Crowd explicit sen~ "With t~           2014 Knowle~ ai       ai            1
##  2 "Docode 5: Building~ "Plagia~           2017 Engine~ enginee~ eng_ai        2
##  3 "Assessing mobile h~ "<bold>~           2018 Intern~ technol~ tech_he~      3
##  4 "A proposal for the~ "Spoken~           2015 Neuroc~ technol~ tech_nc       4
##  5 "Computer-based wor~ "We des~           2015 Early ~ educati~ edu_ear~      5
##  6 "Sequential deep le~ " Sequ~           2021 Safety~ enginee~ eng_saf~      6
##  7 "How Does Prior Kno~ "The go~           2019 Intern~ educati~ edu_ai        7
##  8 "Toward \"On-Demand~ "A Mate~           2020 Advanc~ science  sci_mul~      8
##  9 "SWIFT-Active Scree~ " Mach~           2020 Enviro~ science  sci_env~      9
## 10 "Elicitation of lat~ "Highli~           2014 Comput~ technol~ tech_hu~     10
## # ... with 127 more rows
…
